{
    "es": {
        "dxFileManager-errorDirectoryNotFoundFormat": "Directorio \"{0}\" no encontrado.",
        "dxFileManager-errorWrongFileExtension": "Extensión de archivo no permitida.",
        "dxFileManager-errorMaxFileSizeExceeded": "El tamaño del archivo excede el máximo permitido.",
        "dxFileManager-errorInvalidSymbols": "Este nombre contiene caracteres inválidos.",
        "dxFileManager-errorDefault": "Error inesperado.",

        "dxFileManager-commandCreate": "Nuevo directorio",
        "dxFileManager-commandRename": "Renombrar",
        "dxFileManager-commandMove": "Mover",
        "dxFileManager-commandCopy": "Copiar",
        "dxFileManager-commandDelete": "Eliminar",
        "dxFileManager-commandDownload": "Descargar",
        "dxFileManager-commandUpload": "Subir archivos",
        "dxFileManager-commandRefresh": "Actualizar",
        "dxFileManager-commandThumbnails": "Vista de miniaturas",
        "dxFileManager-commandDetails": "Vista de detalle",
        "dxFileManager-commandClear": "Limpiar selección",

        "dxFileManager-dialogDirectoryChooserTitle": "Seleccionar directorio destino",
        "dxFileManager-dialogDirectoryChooserButtonText": "Seleccionar",
        "dxFileManager-dialogRenameItemTitle": "renombrar",
        "dxFileManager-dialogRenameItemButtonText": "Guardar",
        "dxFileManager-dialogCreateDirectoryTitle": "Nuevo directorio",
        "dxFileManager-dialogCreateDirectoryButtonText": "Crear",

        "dxFileManager-editingCreateSingleItemProcessingMessage": "Creando un directorio en {0}",
        "dxFileManager-editingCreateSingleItemSuccessMessage": "Se ha creado un directorio en {0}",
        "dxFileManager-editingCreateSingleItemErrorMessage": "No se creó directorio",
        "dxFileManager-editingCreateCommonErrorMessage": "No se creó directorio",

        "dxFileManager-editingRenameSingleItemProcessingMessage": "Renombrando un ítem en {0}",
        "dxFileManager-editingRenameSingleItemSuccessMessage": "Se renombró un ítem en {0}",
        "dxFileManager-editingRenameSingleItemErrorMessage": "Item no se renombró",
        "dxFileManager-editingRenameCommonErrorMessage": "Item no se renombró",

        "dxFileManager-editingDeleteSingleItemProcessingMessage": "Borrando un ítem de {0}",
        "dxFileManager-editingDeleteMultipleItemsProcessingMessage": "Borrando {0} ítems de {1}",
        "dxFileManager-editingDeleteSingleItemSuccessMessage": "Se borró un ítem de {0}",
        "dxFileManager-editingDeleteMultipleItemsSuccessMessage": "Eliminados {0} items de {1}",
        "dxFileManager-editingDeleteSingleItemErrorMessage": "Item no se eliminó",
        "dxFileManager-editingDeleteMultipleItemsErrorMessage": "{0} ítems no se eliminaron",
        "dxFileManager-editingDeleteCommonErrorMessage": "Algunos ítems no se eliminaron",

        "dxFileManager-editingMoveSingleItemProcessingMessage": "Moviendo un ítem a {0}",
        "dxFileManager-editingMoveMultipleItemsProcessingMessage": "Moviendo {0} ítems de {1}",
        "dxFileManager-editingMoveSingleItemSuccessMessage": "Se movió un ítem de {0}",
        "dxFileManager-editingMoveMultipleItemsSuccessMessage": "Se movieron {0} ítems de {1}",
        "dxFileManager-editingMoveSingleItemErrorMessage": "Item no se movió",
        "dxFileManager-editingMoveMultipleItemsErrorMessage": "{0} ítems no se movieron",
        "dxFileManager-editingMoveCommonErrorMessage": "Algunos ítems no se movieron",

        "dxFileManager-editingCopySingleItemProcessingMessage": "Copiando un ítem a {0}",
        "dxFileManager-editingCopyMultipleItemsProcessingMessage": "Copiando {0} ítems de {1}",
        "dxFileManager-editingCopySingleItemSuccessMessage": "Se copió un ítem de {0}",
        "dxFileManager-editingCopyMultipleItemsSuccessMessage": "Copiados {0} ítems de {1}",
        "dxFileManager-editingCopySingleItemErrorMessage": "Item no se copió",
        "dxFileManager-editingCopyMultipleItemsErrorMessage": "{0} ítems no se copiaron",
        "dxFileManager-editingCopyCommonErrorMessage": "Algunos ítems no se copiaron",

        "dxFileManager-editingUploadSingleItemProcessingMessage": "Actualizando un ítem a {0}",
        "dxFileManager-editingUploadMultipleItemsProcessingMessage": "Actualizando {0} ítems de {1}",
        "dxFileManager-editingUploadSingleItemSuccessMessage": "Se actualizó un ítem de {0}",
        "dxFileManager-editingUploadMultipleItemsSuccessMessage": "Actualizados {0} ítems de {1}",
        "dxFileManager-editingUploadSingleItemErrorMessage": "Item no se actualizó",
        "dxFileManager-editingUploadMultipleItemsErrorMessage": "{0} ítems no se actualizaron",
        "dxFileManager-editingUploadCanceledMessage": "Cancelado",

        "dxFileManager-listDetailsColumnCaptionName": "Nombre",
        "dxFileManager-listDetailsColumnCaptionDateModified": "Fecha modificada",
        "dxFileManager-listDetailsColumnCaptionFileSize": "Tamaño del archivo",

        "dxFileManager-listThumbnailsTooltipTextSize": "Tamaño",
        "dxFileManager-listThumbnailsTooltipTextDateModified": "Fecha modificada",

        "dxFileManager-notificationProgressPanelTitle": "Progreso",
        "dxFileManager-notificationProgressPanelEmptyListText": "Sin operaciones",
        "dxFileManager-notificationProgressPanelOperationCanceled": "Cancelado",

        "dxDiagram-categoryGeneral": "General",
        "dxDiagram-categoryFlowchart": "Diagrama de flujo",
        "dxDiagram-categoryOrgChart": "Gráfica organizacional",
        "dxDiagram-categoryContainers": "Contenedores",
        "dxDiagram-categoryCustom": "Personalizar",
        "dxDiagram-commandProperties": "Propiedades",
        "dxDiagram-commandExport": "Exportar",
        "dxDiagram-commandExportToSvg": "Exportar a SVG",
        "dxDiagram-commandExportToPng": "Exportar a PNG",
        "dxDiagram-commandExportToJpg": "Exportar a JPEG",
        "dxDiagram-commandUndo": "Deshacer",
        "dxDiagram-commandRedo": "Rehacer",
        "dxDiagram-commandFontName": "Nombre de fuente",
        "dxDiagram-commandFontSize": "Tamaño de fuente",
        "dxDiagram-commandBold": "Negrita",
        "dxDiagram-commandItalic": "Itálica",
        "dxDiagram-commandUnderline": "Subrayado",
        "dxDiagram-commandTextColor": "Color del texto",
        "dxDiagram-commandLineColor": "Color de línea",
        "dxDiagram-commandFillColor": "Llenar color",
        "dxDiagram-commandAlignLeft": "Ainear a la izquierda",
        "dxDiagram-commandAlignCenter": "Alinear en el centro",
        "dxDiagram-commandAlignRight": "Alinear a la derecha",
        "dxDiagram-commandConnectorLineType": "Tipo de conector de línea",
        "dxDiagram-commandConnectorLineStraight": "Derecho",
        "dxDiagram-commandConnectorLineOrthogonal": "Ortogonal",
        "dxDiagram-commandConnectorLineStart": "Conector inicio de línea",
        "dxDiagram-commandConnectorLineEnd": "Conector final de línea",
        "dxDiagram-commandConnectorLineNone": "Ninguno",
        "dxDiagram-commandConnectorLineArrow": "Flecha",
        "dxDiagram-commandAutoLayout": "Diseño automático",
        "dxDiagram-commandAutoLayoutTree": "Arbol",
        "dxDiagram-commandAutoLayoutLayered": "En capas",
        "dxDiagram-commandAutoLayoutHorizontal": "Horizontal",
        "dxDiagram-commandAutoLayoutVertical": "Vertical",
        "dxDiagram-commandFullscreen": "Pantalla completa",
        "dxDiagram-commandUnits": "Unidades",
        "dxDiagram-commandPageSize": "Tamaño de la página",
        "dxDiagram-commandPageOrientation": "Orientación de la página",
        "dxDiagram-commandPageOrientationLandscape": "Paisaje",
        "dxDiagram-commandPageOrientationPortrait": "Portaretrato",
        "dxDiagram-commandPageColor": "Color de la página",
        "dxDiagram-commandShowGrid": "Show Grid",
        "dxDiagram-commandSnapToGrid": "Snap to Grid",
        "dxDiagram-commandGridSize": "Tamaño de la tabla",
        "dxDiagram-commandZoomLevel": "Nivel de Zoom",
        "dxDiagram-commandAutoZoom": "Auto Zoom",
        "dxDiagram-commandSimpleView": "Vista simple",
        "dxDiagram-commandCut": "Cortar",
        "dxDiagram-commandCopy": "Copiar",
        "dxDiagram-commandPaste": "Pegar",
        "dxDiagram-commandSelectAll": "Seleccionar todo",
        "dxDiagram-commandDelete": "Borrar",
        "dxDiagram-commandBringToFront": "Traer al frente",
        "dxDiagram-commandSendToBack": "Enviar atrás",
        "dxDiagram-commandLock": "Bloquear",
        "dxDiagram-commandUnlock": "Desbloquear",
        "dxDiagram-commandInsertShapeImage": "Insertar Imagen...",
        "dxDiagram-commandEditShapeImage": "Cambiar Imagen...",
        "dxDiagram-commandDeleteShapeImage": "Borrar Imagen",
        "dxDiagram-unitIn": "\"",
        "dxDiagram-unitCm": "cm",
        "dxDiagram-unitPx": "px",
        "dxDiagram-dialogButtonOK": "OK",
        "dxDiagram-dialogButtonCancel": "Cancelar",
        "dxDiagram-dialogInsertShapeImageTitle": "Insertar Imagen",
        "dxDiagram-dialogEditShapeImageTitle": "Cambiar Imagen",
        "dxDiagram-dialogEditShapeImageSelectButton": "Seleccionar imagen",
        "dxDiagram-dialogEditShapeImageLabelText": "o suelta el archivo aquí"
    }
}

